module nebula-lambda

go 1.20

require (
	github.com/aws/aws-lambda-go v1.39.1
	github.com/awslabs/aws-lambda-go-api-proxy v0.14.0
	github.com/labstack/echo/v4 v4.10.2
	github.com/mefellows/vesper v0.1.0
	github.com/stretchr/testify v1.8.2
)

require (
	github.com/davecgh/go-spew v1.1.1 // indirect
	github.com/golang-jwt/jwt v3.2.2+incompatible // indirect
	github.com/labstack/gommon v0.4.0 // indirect
	github.com/mattn/go-colorable v0.1.13 // indirect
	github.com/mattn/go-isatty v0.0.17 // indirect
	github.com/pmezard/go-difflib v1.0.0 // indirect
	github.com/valyala/bytebufferpool v1.0.0 // indirect
	github.com/valyala/fasttemplate v1.2.2 // indirect
	golang.org/x/crypto v0.6.0 // indirect
	golang.org/x/net v0.7.0 // indirect
	golang.org/x/sys v0.5.0 // indirect
	golang.org/x/text v0.7.0 // indirect
	golang.org/x/time v0.3.0 // indirect
	gopkg.in/yaml.v3 v3.0.1 // indirect
)
